^C:\USERS\DMANDN\DESKTOP\EDITING\ADV3D-GAME\RELEASE\FRAMEWORK.EXE.INTERMEDIATE.MANIFEST
C:\WINDOWS\REGISTRATION\R000000000011.CLB
C:\WINDOWS\MICROSOFT.NET\FRAMEWORK\V1.1.4322\MSCORWKS.DLL
C:\WINDOWS\MICROSOFT.NET\FRAMEWORK\V2.0.50727\MSCORWKS.DLL
C:\WINDOWS\MICROSOFT.NET\FRAMEWORK\V4.0.30319\CLR.DLL
C:\PROGRAM FILES (X86)\MICROSOFT SDKS\WINDOWS\V7.0A\BIN\MT.EXE.CONFIG
C:\USERS\DMANDN\DESKTOP\EDITING\ADV3D-GAME\RELEASE\FRAMEWORK.EXE
